…
``` r
remotes::install_github("RobertMyles/rugger")
```

I wonâ€™t be burdening CRAN with it.

## Usage

You can see the current world rankings with `get_rankings()`:

``` r
library(rugger)
get_rankings()
#> # A tibble: 105 x 7
#>    team         team_abbr points  rank played previous_points previous_rank
#>    <chr>        <chr>      <dbl> <int>  <int>           <dbl>         <int>
#>  1 South Africa RSA         94.2     1    212            94.2             1
#>  2 New Zealand  NZL         92.1     2    220            92.1             2
#>  3 England      ENG         88.8     3    204            88.8             3
#>  4 Wales        WAL         85.0     4    212            85.0             4
#>  5 Ireland      IRE         84.4     5    196            84.4             5
#>  6 Australia    AUS         81.9     6    227            81.9             6
#>  7 France       FRA         80.9     7    199            80.9             7
#>  8 Japan        JPN         79.3     8    174            79.3             8
#>  9 Scotland     SCO         79.2     9    190            79.2             9
#> 10 Argentina    ARG         78.3    10    190            78.3            10
#> # â€¦ with 95 more rows
```
…
England winning almost 62% of the matches there.

I wonder which player has scored most tries in rugby?

``` r
library(dplyr)

get_team_records(type = "player") %>% 
  arrange(desc(points)) %>% 
  select(player, points)
#> # A tibble: 50 x 2
#>    player                    points
#>    <chr>                      <int>
#>  1 DW Carter (NZ)              1598
#>  2 RJR O'Gara (Ire/Lions)      1083
#>  3 SM Jones (Lions/Wales)       970
#>  4 FA Vlaicu (Rom)              951
#>  5 M Kvirikashvili (Georg)      840
#>  6 CD Paterson (Scot)           809
#>  7 Y Kushnarev (Russ)           777
#>  8 MJ Giteau (Aust)             698
#>  9 BG Habana (SA)               335
#> 10 BG O'Driscoll (Ire/Lions)    250
#> # â€¦ with 40 more rows
```
…
